\relax 
\bibstyle{biblatex}
\bibdata{reportSRP-blx,sources}
\citation{biblatex-control}
\abx@aux@refcontext{none/global//global/global}
\@writefile{toc}{\boolfalse {citerequest}\boolfalse {citetracker}\boolfalse {pagetracker}\boolfalse {backtracker}\relax }
\@writefile{lof}{\boolfalse {citerequest}\boolfalse {citetracker}\boolfalse {pagetracker}\boolfalse {backtracker}\relax }
\@writefile{lot}{\boolfalse {citerequest}\boolfalse {citetracker}\boolfalse {pagetracker}\boolfalse {backtracker}\relax }
\babel@aux{english}{}
\citation{7737062}
\abx@aux@cite{7737062}
\abx@aux@segm{0}{0}{7737062}
\citation{Frank2012APO}
\abx@aux@cite{Frank2012APO}
\abx@aux@segm{0}{0}{Frank2012APO}
\citation{8017474}
\abx@aux@cite{8017474}
\abx@aux@segm{0}{0}{8017474}
\citation{8017474}
\abx@aux@segm{0}{0}{8017474}
\@writefile{toc}{\defcounter {refsection}{0}\relax }\@writefile{toc}{\contentsline {section}{\numberline {I.}Introduction}{3}\protected@file@percent }
\@writefile{toc}{\defcounter {refsection}{0}\relax }\@writefile{toc}{\contentsline {section}{\numberline {II.}The Iterative Approach}{3}\protected@file@percent }
\@writefile{toc}{\defcounter {refsection}{0}\relax }\@writefile{toc}{\contentsline {subsection}{\numberline {A.}ACOPF component}{3}\protected@file@percent }
\@writefile{toc}{\defcounter {refsection}{0}\relax }\@writefile{toc}{\contentsline {subsubsection}{\numberline {1.}Variables and equations}{3}\protected@file@percent }
\newlabel{powerflow}{{1}{4}}
\@writefile{toc}{\defcounter {refsection}{0}\relax }\@writefile{toc}{\contentsline {subsubsection}{\numberline {2.}ACOPF formulation}{4}\protected@file@percent }
\newlabel{acopf}{{2}{4}}
\citation{dunning2017jump}
\abx@aux@cite{dunning2017jump}
\abx@aux@segm{0}{0}{dunning2017jump}
\citation{8017474}
\abx@aux@segm{0}{0}{8017474}
\@writefile{toc}{\defcounter {refsection}{0}\relax }\@writefile{toc}{\contentsline {subsection}{\numberline {B.}Old CCACOPF formulation}{5}\protected@file@percent }
\newlabel{cc-acopf1}{{B.}{5}}
\@writefile{toc}{\defcounter {refsection}{0}\relax }\@writefile{toc}{\contentsline {subsection}{\numberline {C.}Iterative reformulation}{5}\protected@file@percent }
\citation{8017474}
\abx@aux@segm{0}{0}{8017474}
\citation{frolov2019cloud}
\abx@aux@cite{frolov2019cloud}
\abx@aux@segm{0}{0}{frolov2019cloud}
\citation{8017474}
\abx@aux@segm{0}{0}{8017474}
\citation{8017474}
\abx@aux@segm{0}{0}{8017474}
\citation{8017474}
\abx@aux@segm{0}{0}{8017474}
\newlabel{cc-acopf2}{{3}{6}}
\newlabel{eq:lambdas}{{4}{6}}
\@writefile{toc}{\defcounter {refsection}{0}\relax }\@writefile{toc}{\contentsline {subsection}{\numberline {D.}Iterative algorithm structure}{6}\protected@file@percent }
\citation{strogatz}
\abx@aux@cite{strogatz}
\abx@aux@segm{0}{0}{strogatz}
\providecommand*\caption@xref[2]{\@setref\relax\@undefined{#1}}
\newlabel{figure1}{{\caption@xref {figure1}{ on input line 227}}{7}}
\@writefile{lof}{\defcounter {refsection}{0}\relax }\@writefile{lof}{\contentsline {figure}{\numberline {1}{\ignorespaces This demonstrates the algorithm used in the iterative CCACOPF. Initially, the ACOPF problem is solved, which then allows for the calculation of the $\lambda $ values to be used in the next solve.\supercite {8017474} The model convergences when the $\lambda $'s stop changing.\relax }}{7}\protected@file@percent }
\@writefile{toc}{\defcounter {refsection}{0}\relax }\@writefile{toc}{\contentsline {section}{\numberline {III.}Model Behavior}{7}\protected@file@percent }
\@writefile{toc}{\defcounter {refsection}{0}\relax }\@writefile{toc}{\contentsline {subsection}{\numberline {A.}Convergence}{7}\protected@file@percent }
\@writefile{toc}{\defcounter {refsection}{0}\relax }\@writefile{toc}{\contentsline {subsubsection}{\numberline {1.}Fixed-point definition for iterative CCACOPF}{7}\protected@file@percent }
\newlabel{eq:cc-acopf}{{5}{7}}
\newlabel{fixedPointProof}{{6}{7}}
\newlabel{function}{{7}{8}}
\newlabel{gammaMeaning}{{8}{8}}
\@writefile{toc}{\defcounter {refsection}{0}\relax }\@writefile{toc}{\contentsline {subsubsection}{\numberline {2.}Derivative test for fixed-point convergence}{8}\protected@file@percent }
\newlabel{eq:si}{{9}{8}}
\newlabel{lambdadef2}{{11}{8}}
\newlabel{firstD}{{12}{8}}
\newlabel{Jacob}{{2.}{8}}
\newlabel{splitJacob}{{2.}{8}}
\newlabel{dotproduct}{{13}{9}}
\newlabel{dotproduct2}{{14}{9}}
\newlabel{splitJacob2}{{15}{9}}
\newlabel{SiToGamma}{{16}{9}}
\newlabel{splitJacob3}{{17}{9}}
\citation{bienstock2014chance}
\abx@aux@cite{bienstock2014chance}
\abx@aux@segm{0}{0}{bienstock2014chance}
\@writefile{toc}{\defcounter {refsection}{0}\relax }\@writefile{toc}{\contentsline {subsection}{\numberline {B.}Performance}{10}\protected@file@percent }
\newlabel{figure2}{{\caption@xref {figure2}{ on input line 399}}{10}}
\@writefile{lof}{\defcounter {refsection}{0}\relax }\@writefile{lof}{\contentsline {figure}{\numberline {2}{\ignorespaces We compare the cost of 3 different models, the traditional ACOPF, model B, and model C when $\epsilon _V$ is varied. As expected, the ACOPF does not change since it is not chanced-constrained, but the others do. Model B and model C appear to perform similarly with model C costing slightly more with a lower $\epsilon _V$ value.\relax }}{10}\protected@file@percent }
\newlabel{figure3}{{\caption@xref {figure3}{ on input line 406}}{11}}
\@writefile{lof}{\defcounter {refsection}{0}\relax }\@writefile{lof}{\contentsline {figure}{\numberline {3}{\ignorespaces This shows the relationship between cost and the value of $\Sigma $. As $\Sigma $ increases the cost increases as well. At the highest cost, model C costs about 6\% more than the baseline ACOPF. A higher $\Sigma $ means that the chance constraints must be fulfilled at a higher probability, leading to a cost increase.\relax }}{11}\protected@file@percent }
\@writefile{toc}{\defcounter {refsection}{0}\relax }\@writefile{toc}{\contentsline {section}{\numberline {IV.}Conclusion}{11}\protected@file@percent }
\@writefile{lot}{\defcounter {refsection}{0}\relax }\@writefile{lot}{\contentsline {table}{\numberline {I}{\ignorespaces This describes the meaning of the OPF variables. All variables are present at every bus in the power grid.\relax }}{12}\protected@file@percent }
\abx@aux@refcontextdefaultsdone
\abx@aux@defaultrefcontext{0}{7737062}{none/global//global/global}
\abx@aux@defaultrefcontext{0}{Frank2012APO}{none/global//global/global}
\abx@aux@defaultrefcontext{0}{8017474}{none/global//global/global}
\abx@aux@defaultrefcontext{0}{dunning2017jump}{none/global//global/global}
\abx@aux@defaultrefcontext{0}{frolov2019cloud}{none/global//global/global}
\abx@aux@defaultrefcontext{0}{strogatz}{none/global//global/global}
\abx@aux@defaultrefcontext{0}{bienstock2014chance}{none/global//global/global}
