This is BibTeX, Version 0.99d (TeX Live 2018)
Capacity: max_strings=100000, hash_size=100000, hash_prime=85009
The top-level auxiliary file: ccacopf_conv.aux
The style file: IEEEtran.bst
Reallocated singl_function (elt_size=4) to 100 items from 50.
Reallocated singl_function (elt_size=4) to 100 items from 50.
Reallocated singl_function (elt_size=4) to 100 items from 50.
Reallocated wiz_functions (elt_size=4) to 6000 items from 3000.
Reallocated singl_function (elt_size=4) to 100 items from 50.
Database file #1: myrefs.bib
-- IEEEtran.bst version 1.14 (2015/08/26) by Michael Shell.
-- http://www.michaelshell.org/tex/ieeetran/bibtex/
-- See the "IEEEtran_bst_HOWTO.pdf" manual for usage information.

Done.
You've used 23 entries,
            4087 wiz_defined-function locations,
            978 strings with 11647 characters,
and the built_in function-call counts, 18308 in all, are:
= -- 1479
> -- 403
< -- 167
+ -- 224
- -- 64
* -- 887
:= -- 2713
add.period$ -- 48
call.type$ -- 23
change.case$ -- 25
chr.to.int$ -- 375
cite$ -- 23
duplicate$ -- 1310
empty$ -- 1487
format.name$ -- 86
if$ -- 4313
int.to.chr$ -- 0
int.to.str$ -- 23
missing$ -- 220
newline$ -- 94
num.names$ -- 27
pop$ -- 487
preamble$ -- 1
purify$ -- 0
quote$ -- 2
skip$ -- 1413
stack$ -- 0
substring$ -- 883
swap$ -- 1098
text.length$ -- 42
text.prefix$ -- 0
top$ -- 5
type$ -- 23
warning$ -- 0
while$ -- 88
width$ -- 25
write$ -- 250
