\relax 
\citation{ZhangLi11,ZhangLi11a,HojjatJavidi15,BakerDallAneseSummers16,VrakopoulouEtal13}
\citation{matpower11}
\citation{LubinDvorkinRoald19}
\citation{bienstock2014chance,LeeTuritsynMolzahnRoald20,FrolovRoaldChertkov19}
\citation{ra18,SchmidliEtAl16}
\citation{matpower11}
\@writefile{toc}{\contentsline {section}{\numberline {I}Introduction}{1}}
\@writefile{toc}{\contentsline {subsection}{\numberline {\unhbox \voidb@x \hbox {I-A}}AC Power Flow}{1}}
\newlabel{eq:pf}{{1}{1}}
\citation{ra18}
\citation{mill81}
\@writefile{toc}{\contentsline {subsection}{\numberline {\unhbox \voidb@x \hbox {I-B}}AC Optimal Power Flow}{2}}
\newlabel{sec:acopf}{{\unhbox \voidb@x \hbox {I-B}}{2}}
\newlabel{eq:acopf}{{2}{2}}
\newlabel{eq:pf_cons}{{3}{2}}
\@writefile{toc}{\contentsline {subsection}{\numberline {\unhbox \voidb@x \hbox {I-C}}Chance Constrained AC Optimal Power Flow}{2}}
\newlabel{subsec:ccacopf}{{\unhbox \voidb@x \hbox {I-C}}{2}}
\newlabel{eq:pd_rand}{{4}{2}}
\newlabel{eq:stochpfe}{{5}{2}}
\newlabel{eq:ccacopf}{{6}{2}}
\newlabel{eq:ccacopf_consg}{{7}{2}}
\newlabel{eq:ccacopf_consb}{{8}{2}}
\@writefile{toc}{\contentsline {subsubsection}{\numberline {\unhbox \voidb@x \hbox {I-C}1}Computing Chance Constraints}{2}}
\newlabel{eq:linearize}{{9}{2}}
\newlabel{eq:cccons}{{10}{2}}
\newlabel{eq:lamcons}{{11}{2}}
\citation{ra18}
\newlabel{eq:lamconsLF}{{12}{3}}
\newlabel{sec:derivsxo}{{\unhbox \voidb@x \hbox {I-C}2}{3}}
\@writefile{toc}{\contentsline {subsubsection}{\numberline {\unhbox \voidb@x \hbox {I-C}2}Computing the Derivatives $ \partial \mathbf  {x} {\setbox \z@ \hbox {\frozen@everymath \@emptytoks \mathsurround \z@ $\nulldelimiterspace \z@ \left /\vcenter to\@ne \big@size {}\right .$}\box \z@ } \partial \boldsymbol  {\omega } $}{3}}
\newlabel{eq:jac}{{13}{3}}
\newlabel{eq:jacelements}{{14}{3}}
\newlabel{eq:jacbound}{{15}{3}}
\@writefile{toc}{\contentsline {subsection}{\numberline {\unhbox \voidb@x \hbox {I-D}}Implicit Chance Constrained Optimal Power Flow}{3}}
\newlabel{subsec:iccopf}{{\unhbox \voidb@x \hbox {I-D}}{3}}
\newlabel{eq:iacopf}{{16}{3}}
\@writefile{toc}{\contentsline {section}{\numberline {II}Method}{3}}
\newlabel{sec:method}{{II}{3}}
\newlabel{alg:alg1}{{II}{3}}
\newlabel{alg:alg1_s}{{3}{3}}
\newlabel{alg:alg1_lam}{{4}{3}}
\citation{FiaccoKyparisis85,Fiacco80}
\citation{strogatz}
\@writefile{toc}{\contentsline {section}{\numberline {III}Analysis}{4}}
\newlabel{sec:analysis}{{III}{4}}
\newlabel{eq:iacopf_eq}{{17}{4}}
\newlabel{eq:convcond}{{18}{4}}
\@writefile{toc}{\contentsline {subsection}{\numberline {\unhbox \voidb@x \hbox {III-A}}Part I: Representation of $ \frac  {\partial \boldsymbol  {\lambda }_M}{ \partial \boldsymbol  {\lambda } } $}{4}}
\newlabel{sec:part_I}{{\unhbox \voidb@x \hbox {III-A}}{4}}
\newlabel{eq:si}{{19}{4}}
\newlabel{Jacob}{{20}{4}}
\newlabel{dotproduct}{{21}{4}}
\newlabel{eq:boundjacel}{{22}{4}}
\@writefile{toc}{\contentsline {subsection}{\numberline {\unhbox \voidb@x \hbox {III-B}}Part II: Explicit derivatives w.r.t. $ \lambda _n $}{4}}
\newlabel{subsec:part_II}{{\unhbox \voidb@x \hbox {III-B}}{4}}
\citation{FiaccoKyparisis85,Fiacco80}
\newlabel{eq:lamsensitivities}{{23}{5}}
\newlabel{eq:linsys}{{24}{5}}
\newlabel{eq:boundJac}{{25}{5}}
\@writefile{toc}{\contentsline {subsection}{\numberline {\unhbox \voidb@x \hbox {III-C}}Part III: Bound on $ \left \delimiter "026B30D  \frac  {\partial \boldsymbol  {\lambda }_M}{ \partial \boldsymbol  {\lambda } } \right \delimiter "026B30D _2 $ and Implications}{5}}
\newlabel{sec:impl}{{\unhbox \voidb@x \hbox {III-C}}{5}}
\citation{golubvonloan96}
\citation{bezanson2017julia}
\citation{dunning2017jump}
\citation{structJump}
\citation{WaechterBiegler06}
\citation{matpower11}
\citation{matpower11,alsacstott74}
\citation{matpower11}
\citation{matpower11}
\citation{FPCW13}
\citation{FPCW13}
\citation{FPCW13}
\newlabel{eq:upperbound}{{26}{6}}
\@writefile{toc}{\contentsline {subsection}{\numberline {\unhbox \voidb@x \hbox {III-D}}Practical Computations}{6}}
\newlabel{sec:practice}{{\unhbox \voidb@x \hbox {III-D}}{6}}
\@writefile{toc}{\contentsline {section}{\numberline {IV}Numerical Experiments}{6}}
\newlabel{sec:numerical}{{IV}{6}}
\newlabel{tbl:cases}{{IV}{6}}
\@writefile{lot}{\contentsline {table}{\numberline {I}{\ignorespaces Test Cases. Column 2 contains the total number of nodes in the network, $N$, and their split among generators, $N_G$, and loads, $N_L$. The largest case contains more than $9000 < N $ nodes.}}{6}}
\@writefile{lof}{\contentsline {figure}{\numberline {1}{\ignorespaces Comparison of optimal objective function values using CC-ACOPF (direct approach) and CC-ACOPF:Alg.1. The test problem is the IEEE 9 bus case.}}{6}}
\newlabel{fig:EXIa}{{1}{6}}
\@writefile{toc}{\contentsline {subsection}{\numberline {\unhbox \voidb@x \hbox {IV-A}}Experiment I}{6}}
\newlabel{subsec:EXI}{{\unhbox \voidb@x \hbox {IV-A}}{6}}
\@writefile{lof}{\contentsline {figure}{\numberline {2}{\ignorespaces Comparison of optimal objective function values using CC-ACOPF (direct approach) and CC-ACOPF:Alg.1. The test problem is the IEEE 30 bus case.}}{7}}
\newlabel{fig:EXI}{{2}{7}}
\newlabel{tbl:EXII}{{\unhbox \voidb@x \hbox {IV-B}}{7}}
\@writefile{lot}{\contentsline {table}{\numberline {II}{\ignorespaces  Comparison of Algorithm 1 (CC-ACOPF:Alg.1) and a direct solution approach (CC-ACOPF) on a set of IEEE power flow networks. The last 6 rows in the ``Objective" column for CC-ACOPF are labeled $ \texttt  {N/A} $, because this appraoch took computational times in excess of $5$ hours.}}{7}}
\@writefile{toc}{\contentsline {subsection}{\numberline {\unhbox \voidb@x \hbox {IV-B}}Experiment II}{7}}
\newlabel{subsec:EXII}{{\unhbox \voidb@x \hbox {IV-B}}{7}}
\@writefile{toc}{\contentsline {section}{\numberline {V}Conclusion}{7}}
\@writefile{toc}{\contentsline {section}{Appendix\nobreakspace  A: Sensitivities with respect to $ \lambda _n $ }{7}}
\newlabel{appendix:sensitivities}{{A}{7}}
\bibstyle{IEEEtran}
\bibdata{myrefs}
\bibcite{ZhangLi11}{1}
\bibcite{ZhangLi11a}{2}
\bibcite{HojjatJavidi15}{3}
\bibcite{BakerDallAneseSummers16}{4}
\bibcite{VrakopoulouEtal13}{5}
\bibcite{matpower11}{6}
\bibcite{LubinDvorkinRoald19}{7}
\bibcite{bienstock2014chance}{8}
\bibcite{LeeTuritsynMolzahnRoald20}{9}
\bibcite{FrolovRoaldChertkov19}{10}
\bibcite{ra18}{11}
\bibcite{SchmidliEtAl16}{12}
\bibcite{mill81}{13}
\bibcite{FiaccoKyparisis85}{14}
\bibcite{Fiacco80}{15}
\bibcite{strogatz}{16}
\bibcite{golubvonloan96}{17}
\bibcite{bezanson2017julia}{18}
\bibcite{dunning2017jump}{19}
\bibcite{structJump}{20}
\bibcite{WaechterBiegler06}{21}
\bibcite{alsacstott74}{22}
\bibcite{FPCW13}{23}
\@writefile{toc}{\contentsline {section}{References}{8}}
