\relax 
\citation{ZhangLi11,ZhangLi11a,HojjatJavidi15,BakerDallAneseSummers16,VrakopoulouEtal13}
\citation{matpower11}
\citation{LubinDvorkinRoald19}
\citation{bienstock2014chance,LeeTuritsynMolzahnRoald20,FrolovRoaldChertkov19}
\citation{ra18,SchmidliEtAl16,xuEtAl21}
\citation{ra18}
\citation{matpower11}
\@writefile{toc}{\contentsline {section}{\numberline {I}Introduction}{1}{}\protected@file@percent }
\@writefile{toc}{\contentsline {subsection}{\numberline {\mbox  {I-A}}AC Power Flow \leavevmode {\color  {black}(Preliminary)}}{1}{}\protected@file@percent }
\newlabel{eq:pf}{{1}{2}}
\@writefile{toc}{\contentsline {subsection}{\numberline {\mbox  {I-B}}AC Optimal Power Flow \leavevmode {\color  {black}(Preliminary)}}{2}{}\protected@file@percent }
\newlabel{sec:acopf}{{\mbox  {I-B}}{2}}
\newlabel{eq:acopf}{{2}{2}}
\newlabel{eq:pf_cons}{{3}{2}}
\@writefile{toc}{\contentsline {subsection}{\numberline {\mbox  {I-C}}Chance Constrained AC Optimal Power Flow \leavevmode {\color  {black}(Preliminary)}}{2}{}\protected@file@percent }
\newlabel{subsec:ccacopf}{{\mbox  {I-C}}{2}}
\newlabel{eq:pd_rand}{{4}{2}}
\newlabel{eq:stochpfe}{{5}{2}}
\newlabel{eq:ccacopf}{{6}{2}}
\newlabel{eq:ccacopf_consg}{{7}{2}}
\newlabel{eq:ccacopf_consb}{{8}{2}}
\@writefile{toc}{\contentsline {subsubsection}{\numberline {\mbox  {I-C}1}Computing Chance Constraints}{2}{}\protected@file@percent }
\newlabel{eq:linearize}{{9}{2}}
\citation{mill81}
\citation{Roald2017PowerSO}
\citation{LubinDvorkinRoald19}
\citation{Bienstock15}
\citation{HongPan92}
\newlabel{eq:cccons}{{10}{3}}
\newlabel{eq:gamma}{{11}{3}}
\newlabel{eq:lamcons}{{12}{3}}
\newlabel{eq:lamconsLF}{{13}{3}}
\newlabel{sec:derivsxo}{{\mbox  {I-C}2}{3}}
\@writefile{toc}{\contentsline {subsubsection}{\numberline {\mbox  {I-C}2}Computing $ \partial \mathbf  {x} \leavevmode@ifvmode {\setbox \z@ \hbox {\mathsurround \z@ $\nulldelimiterspace \z@ \left /\vcenter to\@ne \big@size {}\right .$}\box \z@ } \partial \boldsymbol  {\omega } $}{3}{}\protected@file@percent }
\newlabel{eq:jac}{{14}{3}}
\newlabel{eq:jacelements}{{15}{3}}
\newlabel{eq:jacbound}{{16}{3}}
\citation{ra18}
\citation{FiaccoKyparisis85,Fiacco80}
\citation{burden2010numerical}
\citation{strogatz}
\citation{burden2010numerical}
\citation{burden2010numerical}
\@writefile{toc}{\contentsline {subsection}{\numberline {\mbox  {I-D}}Implicit Chance Constrained Optimal Power Flow}{4}{}\protected@file@percent }
\newlabel{subsec:iccopf}{{\mbox  {I-D}}{4}}
\newlabel{eq:iacopf}{{17}{4}}
\@writefile{toc}{\contentsline {section}{\numberline {II}Method}{4}{}\protected@file@percent }
\newlabel{sec:method}{{II}{4}}
\newlabel{alg:alg1}{{II}{4}}
\newlabel{alg:alg1_s}{{3}{4}}
\newlabel{alg:alg1_lam}{{4}{4}}
\@writefile{toc}{\contentsline {section}{\numberline {III}Analysis}{4}{}\protected@file@percent }
\newlabel{sec:analysis}{{III}{4}}
\newlabel{eq:iacopf_eq}{{18}{4}}
\newlabel{eq:convcond}{{19}{4}}
\citation{Karu39,KuhnTucker51}
\citation{Roald2017PowerSO}
\citation{Roald2017PowerSO}
\@writefile{toc}{\contentsline {subsection}{\numberline {\mbox  {III-A}}\leavevmode {\color  {black}Basic Conditions}}{5}{}\protected@file@percent }
\newlabel{sec:basic}{{\mbox  {III-A}}{5}}
\newlabel{eq:KKT}{{20}{5}}
\newlabel{eq:linIndep}{{21}{5}}
\@writefile{toc}{\contentsline {subsection}{\numberline {\mbox  {III-B}}\leavevmode {\color  {blue}Analysis Outline}}{5}{}\protected@file@percent }
\newlabel{sec:anoutline}{{\mbox  {III-B}}{5}}
\@writefile{toc}{\contentsline {subsection}{\numberline {\mbox  {III-C}}Part I: Representation of $ \frac  {\partial \boldsymbol  {\lambda }_M}{ \partial \boldsymbol  {\lambda } } $}{5}{}\protected@file@percent }
\newlabel{sec:part_I}{{\mbox  {III-C}}{5}}
\newlabel{eq:si}{{22}{5}}
\newlabel{Jacob}{{23}{5}}
\newlabel{dotproduct}{{24}{5}}
\newlabel{eq:boundjacel}{{25}{5}}
\citation{FiaccoKyparisis85}
\@writefile{toc}{\contentsline {subsection}{\numberline {\mbox  {III-D}}Part II: Sensitivities $ \frac  {\partial \mathbf  {s}}{ \partial \lambda _n} $ and $ \frac  {\partial ^2 \mathbf  {f}}{ \partial \lambda _n \partial \mathbf  {x} } $}{6}{}\protected@file@percent }
\newlabel{subsec:part_II}{{\mbox  {III-D}}{6}}
\newlabel{eq:gammaDerivBound}{{26}{6}}
\newlabel{eq:lamsensitivities}{{27}{6}}
\newlabel{eq:KKTlam}{{28}{6}}
\newlabel{eq:boundJac}{{29}{6}}
\@writefile{toc}{\contentsline {subsection}{\numberline {\mbox  {III-E}}Part III: Bound on $ \left \| \frac  {\partial \boldsymbol  {\lambda }_M}{ \partial \boldsymbol  {\lambda } } \right \|_2 $ and Implications}{6}{}\protected@file@percent }
\newlabel{sec:impl}{{\mbox  {III-E}}{6}}
\newlabel{eq:upperbound}{{30}{6}}
\citation{HongPan92}
\citation{bezanson2017julia}
\citation{dunning2017jump}
\citation{structJump}
\citation{WaechterBiegler06}
\citation{matpower11}
\citation{matpower11,alsacstott74}
\citation{matpower11}
\citation{matpower11}
\citation{FPCW13}
\citation{matpower11}
\citation{FPCW13}
\citation{FPCW13}
\newlabel{eq:uppReform}{{31}{7}}
\@writefile{toc}{\contentsline {subsection}{\numberline {\mbox  {III-F}}Computing a Bound Estimate}{7}{}\protected@file@percent }
\newlabel{sec:practice}{{\mbox  {III-F}}{7}}
\newlabel{tbl:constants}{{\mbox  {III-F}}{7}}
\@writefile{lot}{\contentsline {table}{\numberline {I}{\ignorespaces \leavevmode {\color  {black}Components in computing a bound estimate in \textup  {\hbox {\mathsurround \z@ \normalfont  (\ignorespaces 30\hbox {}\unskip \@@italiccorr )}}}}}{7}{}\protected@file@percent }
\@writefile{toc}{\contentsline {section}{\numberline {IV}Numerical Experiments}{7}{}\protected@file@percent }
\newlabel{sec:numerical}{{IV}{7}}
\newlabel{tbl:cases}{{IV}{7}}
\@writefile{lot}{\contentsline {table}{\numberline {II}{\ignorespaces Test Cases. Column 2 contains the total number of nodes in the network, $N$, and their split among generators, $N_G$, and loads, $N_L$. The largest case contains more \leavevmode {\color  {blue}than $9000$ nodes}.}}{7}{}\protected@file@percent }
\@writefile{toc}{\contentsline {subsection}{\numberline {\mbox  {IV-A}}Experiment I}{7}{}\protected@file@percent }
\newlabel{subsec:EXI}{{\mbox  {IV-A}}{7}}
\@writefile{lof}{\contentsline {figure}{\numberline {1}{\ignorespaces Comparison of optimal objective function values using \leavevmode {\color  {black}CC-Direct} (direct approach) and \leavevmode {\color  {black}CC-FP (fixed-point)}. The optimal objective function values nearly coincide on this IEEE 9 bus case as the parameters $ \boldsymbol  {\epsilon }_v $ (probability thresholds) vary. }}{8}{}\protected@file@percent }
\newlabel{fig:EXIa}{{1}{8}}
\@writefile{lof}{\contentsline {figure}{\numberline {2}{\ignorespaces Comparison of optimal objective function values using \leavevmode {\color  {black}CC-Direct} (direct approach) and \leavevmode {\color  {black}CC-FP (fixed-point)}. Also on this IEEE 30 bus case the optimal objective function values nearly coincide as the parameters $ \boldsymbol  {\epsilon }_v $ (probability thresholds) vary. }}{8}{}\protected@file@percent }
\newlabel{fig:EXI}{{2}{8}}
\newlabel{tbl:EXII}{{\mbox  {IV-B}}{8}}
\@writefile{lot}{\contentsline {table}{\numberline {III}{\ignorespaces  Comparison of Algorithm 1 (\leavevmode {\color  {black}CC-FP}) and a direct solution approach (\leavevmode {\color  {black}CC-Direct}) on a set of IEEE power networks. The last 6 rows in the ``Objective" column for \leavevmode {\color  {black}CC-Direct} are labeled $ \texttt  {N/A} $, because this approach took computational times in excess of $5$ hours.}}{8}{}\protected@file@percent }
\@writefile{toc}{\contentsline {subsection}{\numberline {\mbox  {IV-B}}Experiment II}{8}{}\protected@file@percent }
\newlabel{subsec:EXII}{{\mbox  {IV-B}}{8}}
\@writefile{toc}{\contentsline {subsection}{\numberline {\mbox  {IV-C}}\leavevmode {\color  {black}Experiment III}}{8}{}\protected@file@percent }
\newlabel{subsec:EXIII}{{\mbox  {IV-C}}{8}}
\newlabel{subsubsec:EXIIIa}{{\mbox  {IV-C}1}{8}}
\@writefile{toc}{\contentsline {subsubsection}{\numberline {\mbox  {IV-C}1}\leavevmode {\color  {black}Experiment III.A}}{8}{}\protected@file@percent }
\@writefile{lof}{\contentsline {figure}{\numberline {3}{\ignorespaces \leavevmode {\color  {black}Normalized optimal objective values (relative to the original optimal value), when nonzero loads at all buses in all systems vary by a factor of $0.8$ --- $1.2$. Objective values of $0$ indicate that the problem did not converge. All problems were solvable with load values up to one percent of the original. Some problems such as {\relax \fontsize  {9}{10pt}\selectfont  IEEE 9 } and {\relax \fontsize  {9}{10pt}\selectfont  IEEE \leavevmode {\color  {blue}118}} were solvable with increases of up to $ 20\% $. Black squares represent problems in which the corresponding classical ACOPF problem (without a probability model) did converge on the same perturbed problem. In only 4 instances out of 136 total perturbed problems did this occur. Overall, the changes in loads linearly affect the optimal values and the chance-constrained models have similar sensitivities to load changes as the classical ACOPF.}}}{9}{}\protected@file@percent }
\newlabel{fig:PerturbedProbs}{{3}{9}}
\newlabel{subsub:EXIIIb}{{\mbox  {IV-C}2}{9}}
\@writefile{toc}{\contentsline {subsubsection}{\numberline {\mbox  {IV-C}2}\leavevmode {\color  {black}Experiment III.B}}{9}{}\protected@file@percent }
\newlabel{subsub:EXIIIc}{{\mbox  {IV-C}3}{9}}
\@writefile{toc}{\contentsline {subsubsection}{\numberline {\mbox  {IV-C}3}\leavevmode {\color  {black}Experiment III.C}}{9}{}\protected@file@percent }
\@writefile{lof}{\contentsline {figure}{\numberline {4}{\ignorespaces \leavevmode {\color  {black}Top: Relative frequencies for the count of elements of vector $ \mathbf  {v} $ that satisfy $ \mathbf  {v} \le \mathbf  {u} $. The constraint that all 9 voltages simultaneously satisfy the inequality has probability of 0.044. Bottom: Relative frequencies of each individual voltage to satisfy its constraint. Independently enforcing each voltage to satisfy the constraints $ \DOTSB \prod@ \slimits@ _{i=1}^9 P(v_i \le u_i) $ has a probability of 0.007. In this case there is a factor of about 6 (i.e. $ 0.044 / 0.007 $) between enforcing a joint or individual constraints. However, enforcing joint probability constraints as part of an optimization for large problems is typically not computationally feasible.}}}{9}{}\protected@file@percent }
\newlabel{fig:frequencies}{{4}{9}}
\@writefile{toc}{\contentsline {section}{\numberline {V}Conclusion}{9}{}\protected@file@percent }
\@writefile{toc}{\contentsline {subsection}{\numberline {\mbox  {V-A}}\leavevmode {\color  {blue}Limitations}}{9}{}\protected@file@percent }
\bibstyle{IEEEtran}
\bibdata{myrefs}
\newlabel{tbl:EXIII_UP}{{\mbox  {IV-C}1}{10}}
\@writefile{lot}{\contentsline {table}{\numberline {IV}{\ignorespaces \leavevmode {\color  {blue}Convergence of Algorithm 1 when $ \sigma = \frac  {\alpha }{N^2} $ for $ \alpha = \{1, 10, 10^4, 10^6, 10^8 \} $. A boxed $\texttt  {Y}$ in rows labeled\nobreakspace  {}\texttt  {Conv.}\nobreakspace  {}indicates convergence. Values in rows labeled \nobreakspace  {}\texttt  {Cond. 30}\nobreakspace  {}correspond to the computed value in the right hand side of \textup  {\hbox {\mathsurround \z@ \normalfont  (\ignorespaces 30\hbox {}\unskip \@@italiccorr )}}. Bold or resp. italic $ K_P $ values represents the smallest resp. second smallest $K_P$ values.}}}{10}{}\protected@file@percent }
\@writefile{toc}{\contentsline {subsection}{\numberline {\mbox  {V-B}}\leavevmode {\color  {blue}Future Work}}{10}{}\protected@file@percent }
\bibcite{ZhangLi11}{1}
\bibcite{ZhangLi11a}{2}
\bibcite{HojjatJavidi15}{3}
\bibcite{BakerDallAneseSummers16}{4}
\bibcite{VrakopoulouEtal13}{5}
\bibcite{matpower11}{6}
\bibcite{LubinDvorkinRoald19}{7}
\bibcite{bienstock2014chance}{8}
\bibcite{LeeTuritsynMolzahnRoald20}{9}
\bibcite{FrolovRoaldChertkov19}{10}
\bibcite{ra18}{11}
\bibcite{SchmidliEtAl16}{12}
\bibcite{xuEtAl21}{13}
\bibcite{mill81}{14}
\bibcite{Roald2017PowerSO}{15}
\bibcite{Bienstock15}{16}
\bibcite{HongPan92}{17}
\bibcite{FiaccoKyparisis85}{18}
\bibcite{Fiacco80}{19}
\bibcite{burden2010numerical}{20}
\bibcite{strogatz}{21}
\bibcite{Karu39}{22}
\bibcite{KuhnTucker51}{23}
\bibcite{bezanson2017julia}{24}
\bibcite{dunning2017jump}{25}
\bibcite{structJump}{26}
\bibcite{WaechterBiegler06}{27}
\bibcite{alsacstott74}{28}
\bibcite{FPCW13}{29}
\@writefile{toc}{\contentsline {section}{References}{11}{}\protected@file@percent }
\@writefile{toc}{\contentsline {section}{Biographies}{11}{}\protected@file@percent }
\@writefile{toc}{\contentsline {subsection}{Johannes J. Brust}{11}{}\protected@file@percent }
\@writefile{toc}{\contentsline {subsection}{Mihai Anitescu}{11}{}\protected@file@percent }
\gdef \@abspage@last{11}
